{
  "project_info": {
    "project_number": "449278667543",
    "firebase_url": "https://clever-guard-289701.firebaseio.com",
    "project_id": "clever-guard-289701",
    "storage_bucket": "clever-guard-289701.appspot.com"
  },
  "client": [
    {
      "client_info": {
        "mobilesdk_app_id": "1:449278667543:android:e3bd5f913609d09156a552",
        "android_client_info": {
          "package_name": "nuraini.laily.appx0d"
        }
      },
      "oauth_client": [
        {
          "client_id": "449278667543-ov0u2vfefhe4s2atsqcfq1aos60b2mlt.apps.googleusercontent.com",
          "client_type": 3
        }
      ],
      "api_key": [
        {
          "current_key": "AIzaSyA8v4ASOaL-NRny_JnGrR8SUrUKVIZdH-Y"
        }
      ],
      "services": {
        "appinvite_service": {
          "other_platform_oauth_client": [
            {
              "client_id": "449278667543-ov0u2vfefhe4s2atsqcfq1aos60b2mlt.apps.googleusercontent.com",
              "client_type": 3
            }
          ]
        }
      }
    },
    {
      "client_info": {
        "mobilesdk_app_id": "1:449278667543:android:77094c274992d06d56a552",
        "android_client_info": {
          "package_name": "nuraini.laily.appx0e"
        }
      },
      "oauth_client": [
        {
          "client_id": "449278667543-ov0u2vfefhe4s2atsqcfq1aos60b2mlt.apps.googleusercontent.com",
          "client_type": 3
        }
      ],
      "api_key": [
        {
          "current_key": "AIzaSyA8v4ASOaL-NRny_JnGrR8SUrUKVIZdH-Y"
        }
      ],
      "services": {
        "appinvite_service": {
          "other_platform_oauth_client": [
            {
              "client_id": "449278667543-ov0u2vfefhe4s2atsqcfq1aos60b2mlt.apps.googleusercontent.com",
              "client_type": 3
            }
          ]
        }
      }
    }
  ],
  "configuration_version": "1"
}